%YAML 1.1
%TAG !u! tag:unity3d.com,2011:
--- !u!114 &11400000
MonoBehaviour:
  m_ObjectHideFlags: 0
  m_CorrespondingSourceObject: {fileID: 0}
  m_PrefabInstance: {fileID: 0}
  m_PrefabAsset: {fileID: 0}
  m_GameObject: {fileID: 0}
  m_Enabled: 1
  m_EditorHideFlags: 0
  m_Script: {fileID: 11500000, guid: 16a93f78e4eb3b948be673e03f8ade18, type: 3}
  m_Name: Wave_4
  m_EditorClassIdentifier: 
  m_Enemy:
  - enemy: {fileID: 6119837263651161220, guid: bcd285e1b2ee3c94da20d2b0a5c2460e, type: 3}
    count: 100
    SpawnRate: 1
  - enemy: {fileID: 9218095922246298735, guid: 93844e4f21b94ed47a5e8e30779eb3e1, type: 3}
    count: 33
    SpawnRate: 2
  - enemy: {fileID: 6374555169459676322, guid: 847d1d5fc4d392f4ea7a8589626e838a, type: 3}
    count: 14
    SpawnRate: 7
